1 2.96
2 3.00
3 3.01
4 3.01
6 3.05
8 3.02
12 3.02
13 3.08
16 3.07
19 3.13
21 3.71
24 3.71
27 3.73
29 3.74
32 3.75
35 3.74
45 3.78
48 3.77
51 3.79
61 3.88
64 3.87
67 3.88
93 3.99
96 3.96
99 3.97
125 5.36
128 5.32
131 5.36
189 5.52
192 5.49
195 5.50
253 5.70
256 5.65
259 5.68
381 6.00
384 5.96
387 5.98
509 6.33
512 6.29
515 6.31
765 7.02
768 7.03
771 7.03
1021 8.11
1024 8.04
1027 8.10
1533 8.65
1536 8.58
1539 8.63
2045 9.71
2048 9.67
2051 9.71
3069 11.84
3072 11.80
3075 11.83
4093 14.28
4096 14.25
4099 14.28
6141 15.83
6144 15.81
6147 15.82
8189 18.84
8192 18.81
8195 18.81
12285 23.48
12288 23.47
12291 23.46
16381 28.16
16384 28.16
16387 28.13
24573 38.49
24576 38.48
24579 38.51
32765 43.55
32768 43.57
32771 54.73
49149 67.71
49152 67.73
49155 67.79
65533 81.14
65536 81.19
65539 81.14
98301 107.58
98304 107.55
98307 107.68
131069 134.28
131072 134.28
131075 134.22
196605 187.25
196608 187.34
196611 187.41
262141 240.50
262144 240.43
262147 240.52
393213 346.71
393216 346.72
393219 346.73
524285 452.98
524288 453.06
524291 452.91
786429 665.33
786432 665.51
786435 665.48
1048573 877.91
1048576 877.85
1048579 877.96
1572861 1303.07
1572864 1303.15
1572867 1302.92
2097149 1728.12
2097152 1727.87
2097155 1727.86
3145725 2577.81
3145728 2577.72
3145731 2577.78
4194301 3427.75
4194304 3427.47
4194307 3427.74
6291453 5127.22
6291456 5126.61
6291459 5127.12
8388605 6827.10
8388608 6826.93
8388611 6825.92
